SAMH Writing Sample
…
patient_IDs_w_multiple_names <- df %>% 
  select(PatientID, PatientName) %>% 
  unique() %>% 
  group_by(PatientID) %>% 
  summarise(n_names = n()) %>% 
  filter(n_names > 1)

df %>% 
  inner_join(patient_IDs_w_multiple_names) %>% 
  arrange(PatientID)

Joining with `by = join_by(PatientID)`

# A tibble: 97 × 19
   PatientID  VisitID PatientName PatientAddress City  State Zipcode   Age Sex  
       <dbl>    <dbl> <chr>       <chr>          <chr> <chr>   <dbl> <dbl> <chr>
 1    325800 55667035 Susan Creel 801 W Shotwel… Bain… GA      39819     7 Fema…
 2    325800 55667035 Susan Creel 801 W Shotwel… Bain… GA      39819     7 Fema…
 3    325800 55667046 Sheri Camp… 801 W Shotwel… Bain… GA      39819     7 Fema…
 4    325800 55667046 Sheri Camp… 801 W Shotwel… Bain… GA      39819     7 Fema…
 5    325800 55667046 Sheri Camp… 801 W Shotwel… Bain… GA      39819     7 Fema…
 6    325800 55667046 Sheri Camp… 801 W Shotwel… Bain… GA      39819     7 Fema…
 7    325800 55667046 Sheri Camp… 801 W Shotwel… Bain… GA      39819     7 Fema…
 8    325801 55667036 George Mas… 1700 Pat Thom… Quin… FL      32351    52 Male 
 9    325801 55667036 George Mas… 1700 Pat Thom… Quin… FL      32351    52 Male 
10    325801 55667036 George Mas… 1700 Pat Thom… Quin… FL      32351    52 Male 
# ℹ 87 more rows
# ℹ 10 more variables: Physician <chr>, `Visit Type` <chr>, DRG <chr>,
#   DRGDesc <chr>, Diagnosis <chr>, DiagnosisRank <dbl>, Procedure <chr>,
#   AdmitDate <dttm>, DischargeDate <dttm>, n_names <int>
…
patient_names_w_multiple_addresses <- df %>% 
  select(PatientAddress, PatientName) %>% 
  unique() %>% 
  group_by(PatientName) %>% 
  summarise(n_add = n()) %>% 
  filter(n_add > 1)

df %>% 
  inner_join(patient_names_w_multiple_addresses) %>% 
  arrange(PatientName)

Joining with `by = join_by(PatientName)`

# A tibble: 88 × 19
   PatientID  VisitID PatientName PatientAddress City  State Zipcode   Age Sex  
       <dbl>    <dbl> <chr>       <chr>          <chr> <chr>   <dbl> <dbl> <chr>
 1    325809 55667044 Alex Murda… 3490 Weems Rd  Tall… FL      32317    14 Male 
 2    325809 55667044 Alex Murda… 3490 Weems Rd  Tall… FL      32317    14 Male 
 3    325809 55667044 Alex Murda… 3490 Weems Rd  Tall… FL      32317    14 Male 
 4    325809 55667044 Alex Murda… 3490 Weems Rd  Tall… FL      32317    14 Male 
 5    325809 55667044 Alex Murda… 3491 Weems Rd  Tall… FL      32317    14 Male 
 6    325809 55667044 Alex Murda… 3492 Weems Rd  Tall… FL      32317    14 Male 
 7    325809 55667044 Alex Murda… 3492 Weems Rd  Tall… FL      32317    14 Male 
 8    332571 55667017 Derek Flan… 45 Brandt Str… Tall… FL      32308    25 Male 
 9    332571 55667017 Derek Flan… 46 Brandt Str… Tall… FL      32308    25 Male 
10    332571 55667017 Derek Flan… 47 Brandt Str… Tall… FL      32308    25 Male 
# ℹ 78 more rows
# ℹ 10 more variables: Physician <chr>, `Visit Type` <chr>, DRG <chr>,
#   DRGDesc <chr>, Diagnosis <chr>, DiagnosisRank <dbl>, Procedure <chr>,
#   AdmitDate <dttm>, DischargeDate <dttm>, n_add <int>
…
DRG and DRGDesc match to one another uniquely, wonderful. Does each patient-visit combo map uniquely to a DRG?

df %>% 
  select(PatientName, VisitID) %>% 
  unique()

# A tibble: 56 × 2
   PatientName      VisitID
   <chr>              <dbl>
 1 Jane Doe        55667012
 2 Mike Smith      55667013
 3 Joy Cloud       55667014
 4 Mary Blunt      55667015
 5 Joe Rogoano     55667016
 6 Derek Flanigan  55667017
 7 Zoe George      55667018
 8 Joseph Flanigan 55667019
 9 Jenna Flanigan  55667020
10 Ray Flanigan    55667021
# ℹ 46 more rows

56 total visits.

df %>% 
  select(PatientName, VisitID, DRG) %>% 
  unique()

# A tibble: 56 × 3
   PatientName      VisitID DRG  
   <chr>              <dbl> <chr>
 1 Jane Doe        55667012 955  
 2 Mike Smith      55667013 885  
 3 Joy Cloud       55667014 958  
 4 Mary Blunt      55667015 883  
 5 Joe Rogoano     55667016 885  
 6 Derek Flanigan  55667017 885  
 7 Zoe George      55667018 883  
 8 Joseph Flanigan 55667019 883  
 9 Jenna Flanigan  55667020 928  
10 Ray Flanigan    55667021 929  
# ℹ 46 more rows
…
Task 6

Now, where are our patients coming from?

df %>% 
  select(PatientName, City, State) %>% 
  unique()

# A tibble: 47 × 3
   PatientName     City          State
   <chr>           <chr>         <chr>
 1 Jane Doe        Tallahassee   FL   
 2 Mike Smith      Pelham        GA   
 3 Joy Cloud       Crawfordville FL   
 4 Mary Blunt      Tallahassee   FL   
 5 Joe Rogoano     Tallahassee   FL   
 6 Derek Flanigan  Tallahassee   FL   
 7 Zoe George      Tallahassee   FL   
 8 Joseph Flanigan Tallahassee   FL   
 9 Jenna Flanigan  Tallahassee   FL   
10 Ray Flanigan    Tallahassee   FL   
# ℹ 37 more rows
…
